anode_ocv_table_start
4=col
0xd263fb79=crc
0.877704203019688101, 0.563234590905797750, 0.443121257432591731
0.364164596544365782, 0.305826697320616792, 0.261846245758278418
0.232459061255096078, 0.222162334204882156, 0.217999332973080717
0.215137475373564341, 0.212831544307897552, 0.210181426903890439
0.207321760038506775, 0.203719897900219188, 0.198496444795927235
0.191422403623929510, 0.184830230125459766, 0.178779934309263089
0.172858352816297661, 0.167381971876944619, 0.162236152617940277
0.158298260203827951, 0.153854644086694553, 0.149826571579902340
0.146093872858414381, 0.143462165780817746, 0.141384267050957219
0.139911413691756886, 0.138296630010358718, 0.137235633093110404
0.136183653071829253, 0.135165246629458308, 0.134515850180748187
0.133850119971460901, 0.133238484330203216, 0.132407445809950647
0.131968179722910306, 0.131372390668136968, 0.131027944944992369
0.130503076669352347, 0.129914996574342162, 0.129727394659401363
0.129273036572632338, 0.128707388533462003, 0.128417488472547525
0.127912196469465889, 0.127668652257140192, 0.127118159262583713
0.126769463308846503, 0.126165709487701366, 0.125425601388008900
0.125033788948028329, 0.124402449790981071, 0.123578051520281854
0.122559536915768111, 0.120863413845062231, 0.119398097533031475
0.117265196011544962, 0.114158271018318866, 0.110375219217521289
0.105854493757147658, 0.101822567445377876, 0.098707013614117045
0.096788921382849960, 0.095097240152503135, 0.094183786646897236
0.093471243087820191, 0.093002910887240178, 0.092442978328974038
0.092080759629193251, 0.091798181828823974, 0.091393611623760598
0.091083366597769458, 0.090942726125405549, 0.090624435615361279
0.090530602080543157, 0.090327091882847585, 0.089898484994617112
0.089879351815483913, 0.089543640360958590, 0.089372816646170625
0.089242600248612233, 0.088951358620853807, 0.088977847433266033
0.088688232772636044, 0.088245162866245883, 0.088177931392039346
0.088066351306997123, 0.087622414174344465, 0.087440723705381251
0.087174150945796017, 0.086506023065529791, 0.086571371956478127
0.085949676000150466, 0.085469537112718319, 0.084948217493610423
0.084465578436294611, 0.083334279212892284, 0.082462856135753201
0.080842773073404192, 0.074854945270177095, 0.521302112499999915
0.411747945345347144, 0.343893251112318110, 0.294324203360477821
0.259763429409739177, 0.236684496665180932, 0.222367084265991388
0.217889131405703540, 0.215479097688031584, 0.213604431585467824
0.211615326624437605, 0.209422907483944931, 0.206539424903220747
0.202801743631835729, 0.197238853497263777, 0.190859048285687671
0.184870336097435639, 0.179200457261024571, 0.173917567106540105
0.168681120355046565, 0.163950631367235533, 0.159910184031897273
0.156137609924873105, 0.152553132198911479, 0.149024368814392794
0.146043411634432796, 0.143594996981368128, 0.141376272488431209
0.139191791680598559, 0.137483575074213910, 0.136197259779066104
0.134838331240460130, 0.133692540218206896, 0.132784961188991191
0.131864824050547613, 0.131115106541705356, 0.130565994358713966
0.130020385159737600, 0.129479535269314883, 0.129303774426881402
0.128952054934188293, 0.128571343115986503, 0.128145865490358085
0.127932138717096855, 0.127606299400693485, 0.127433462981422080
0.127120146768987363, 0.126825772268404358, 0.126600362407529782
0.126288851335285057, 0.126064820056066035, 0.125773445760388125
0.125412841383108015, 0.125089472597396972, 0.124702323633166023
0.124364590353440094, 0.123927194319143147, 0.123335194083602329
0.122605481454506199, 0.121928663832422901, 0.120891284292311357
0.119555928892322028, 0.117511755181231040, 0.114498972007404776
0.109917167841610791, 0.104267853867277147, 0.099617179317010890
0.096175943669820477, 0.093990985156020473, 0.092548694103711082
0.091643570818578671, 0.090982307881568469, 0.090786281683618408
0.090442409884827463, 0.090263935096952047, 0.090125306297477559
0.089868601173569401, 0.089806332478253953, 0.089596666193898222
0.089476374629486849, 0.089315546890940622, 0.089297775360381082
0.089068890135206122, 0.088990227304043129, 0.088756726390677734
0.088706858115895543, 0.088572750829348956, 0.088383604491651432
0.088368869270502470, 0.088077971068350108, 0.087918636771291331
0.087763015107415465, 0.087673265333106529, 0.087426970812522875
0.087198627230393816, 0.086991025567815752, 0.086646377210282746
0.086324153891048361, 0.085810131461575068, 0.085117916009448624
0.082201810749999993, 0.644322324670992597, 0.473160388629826678
0.386987749242118262, 0.327522308177631172, 0.283850442613118537
0.251934072364965955, 0.231141891176898623, 0.220266071317932410
0.216576770137903940, 0.214607440385761461, 0.212707500843251490
0.210904869066062178, 0.208702120591794354, 0.205402429820123605
0.200560054289500633, 0.194564904306195607, 0.188280321592959599
0.182473412184820882, 0.176984464432253907, 0.171686328834090185
0.166781749841084403, 0.162320249216789780, 0.158548755882615022
0.155039049774174348, 0.151692988097584525, 0.148542710935509831
0.145842813917324038, 0.143331774566261255, 0.141132705337782327
0.138968112690685708, 0.137072830692424985, 0.135224076737670951
0.133531051273086093, 0.132037291667492729, 0.130769245053969224
0.129940319997861847, 0.129170829280802368, 0.128526927063166596
0.128014308672383337, 0.127560311425702511, 0.127220909154843548
0.126739652171555639, 0.126549026432616452, 0.126207126321698643
0.126006511740639704, 0.125712544990744191, 0.125516004505535433
0.125190542021128282, 0.124982607985727773, 0.124735629554365540
0.124419839264197335, 0.124172853834996572, 0.123838864919810179
0.123545480378159184, 0.123194898292512386, 0.122796973589552799
0.122327798362588502, 0.121762599273856825, 0.121123123499419977
0.120460897511815893, 0.119307398679580220, 0.117980969904127708
0.115913480588182904, 0.112843119082217475, 0.108582906731371248
0.104012068541389099, 0.099565955499192130, 0.096065847177133110
0.093846472485227428, 0.092416390299543266, 0.091444461823240550
0.090933297317306566, 0.090565868378932463, 0.090314723129936283
0.090187120245068308, 0.089975634784294295, 0.089732487365792257
0.089683054230471793, 0.089558970298510343, 0.089322464719026967
0.089275699011391360, 0.089206312479154962, 0.089139516073515265
0.089000344561328645, 0.088847141767713481, 0.088686557705272534
0.088529343622512330, 0.088580348435089773, 0.088413328223717225
0.088175519165255664, 0.087996994260552130, 0.087921648803026026
0.087740367151945983, 0.087561541706434112, 0.087381923537527467
0.087156937829931017, 0.086879604850984851, 0.086596222785604582
0.086211790901605065, 0.085524334704287525, 0.083156925621207564
0.876843805494994188, 0.572890109237567557, 0.450962971317767469
0.370708426920944689, 0.311229161005336985, 0.265245226039432236
0.232212955370559665, 0.220760116847641935, 0.217350590280260908
0.215632931918891463, 0.214118593742854829, 0.212179335086678994
0.210199407423911272, 0.206860083792945820, 0.200717908160835318
0.193170087187112260, 0.186475070625861189, 0.180202954002915666
0.174410762752667342, 0.168794946669815232, 0.163941676528856495
0.159449533201602156, 0.155602499224222396, 0.152066443056113804
0.148952634340557832, 0.146256881848158132, 0.143393021212184807
0.140830474447245835, 0.138358323658097082, 0.136200598089162378
0.133817463858454139, 0.131809513733646216, 0.130233584821977638
0.128718334716747512, 0.127565662100248334, 0.126703786805370949
0.126070645099756490, 0.125669129887291203, 0.125369375966177116
0.124945451720030173, 0.124501154880432841, 0.124249399744803521
0.124112134714850234, 0.123838099924158798, 0.123657734683312162
0.123283936864467883, 0.122962055347259791, 0.122683780226706715
0.122315738782556929, 0.122300446047253250, 0.121589486234024935
0.121205449571793591, 0.120485888808474106, 0.119791420599601670
0.118255876872198754, 0.116276155677265222, 0.114704519515780368
0.113105978193627957, 0.110772737823067249, 0.107388623759943583
0.103533906451942201, 0.100239824455741214, 0.097344196536125707
0.095499899630649032, 0.094060723750245476, 0.092846969493405693
0.092115237260886773, 0.091520694890087809, 0.091189897269029666
0.090724747917492743, 0.090600533538641434, 0.090345867863226806
0.090177963825952293, 0.089802181074243301, 0.089824938096914053
0.089682407569181444, 0.089584390021320973, 0.089323713243289929
0.089298181905533403, 0.089200587872789949, 0.089211047674441060
0.089046556329133872, 0.088895243051722694, 0.088555586158347174
0.088575909069546668, 0.088648373170466768, 0.088547353651202962
0.088341395624130500, 0.088262654948269778, 0.088104417622527284
0.088077864361329292, 0.087906787958881197, 0.087638506561162677
0.087453129790779696, 0.087270365060380592, 0.086858097191079994
0.086529936217566619, 0.086039413607192736, 0.085471020543843146
0.084774958073908016, 0.081988932895442276
anode_ocv_table_end
weight_table_start
4=col
0x4bebccf9=crc
0.43730420358807615, 0.42485732822239847, 0.41305808304403152
0.40190646805297542, 0.39140248324923010, 0.38183548758250302
0.37115694586305353, 0.36449706236570922, 0.36422157861903093
0.36864194671410627, 0.37465802596548609, 0.37978583361381524
0.38267894483557080, 0.38350707917277355, 0.38226218672753898
0.37946968390268343, 0.37560098162449090, 0.37126551222202248
0.36714946285361894, 0.36300356889309476, 0.35889366954073559
0.35475040502030852, 0.35098501972842205, 0.34770979799333557
0.34530000698073848, 0.34398084337456802, 0.34335019828333402
0.34343134666788100, 0.34413720815000459, 0.34523360035450407
0.34657664236936020, 0.34810934150292672, 0.34987186988765856
0.35167739178496565, 0.35353743792690495, 0.35553771744539342
0.35752217138869197, 0.35953863047367862, 0.36164607231054419
0.36378485617678286, 0.36595574831066940, 0.36807570722360772
0.37029990650403383, 0.37240583376363984, 0.37460909540563386
0.37677432257881976, 0.37878003460476783, 0.38101548326245377
0.38374531605123297, 0.38648991157687573, 0.38929360185078193
0.39199526630031339, 0.39431799746634427, 0.39600916623099919
0.39724303705160435, 0.39831642732182032, 0.39861418617029232
0.39776657851158626, 0.39484211533596258, 0.39032409449919586
0.38516536918755928, 0.38062237781723185, 0.37799008837957437
0.37776346424777041, 0.38013365345335726, 0.38347004692243875
0.38774211451352852, 0.39251963111774146, 0.39786110768478761
0.40327255583193933, 0.40888088179472670, 0.41473039560453479
0.42055836398747598, 0.42661327538502980, 0.43265296382027241
0.43869717615161419, 0.44482554623379972, 0.45041789667293669
0.45473381831601672, 0.45742103512636423, 0.45852183649048506
0.45817780861752982, 0.45706863229883066, 0.45599611354516895
0.45520952446531932, 0.45442293538546996, 0.45363634630562072
0.45284975722577131, 0.45206316814592196, 0.45127657906607266
0.45048998998622314, 0.44970340090637384, 0.44891681182652438
0.44813022274667458, 0.44734363366682539, 0.44655704458697615
0.44577045550712724, 0.44498386642727783, 0.44419727734742831
0.44341068826757862, 0.44262409918772905, 0.41697552413192263
0.39886079130493624, 0.38291816541636348, 0.36914764646620429
0.35754923445445885, 0.34151219758044038, 0.33633489714966897
0.33781388959937014, 0.34152102770317189, 0.34578499975851362
0.35004243108152983, 0.35299487664618390, 0.35442127213140051
0.35389904951541457, 0.35130272063620965, 0.34676008235638828
0.34096623318484648, 0.33548676861209681, 0.33034087884928620
0.32562073416588522, 0.32122262116551459, 0.31721136125366195
0.31349209167940939, 0.31007769839699412, 0.30735965013924799
0.30518257885727040, 0.30351052699820796, 0.30226416751460983
0.30123827782817181, 0.30042654347568781, 0.29970822630653965
0.29955194838183191, 0.29959392296659254, 0.29975557651188184
0.30002798361148192, 0.30034464640281300, 0.30082193337558566
0.30153700695004593, 0.30239910501778733, 0.30330535165793593
0.30424070630154354, 0.30519537271114411, 0.30624028848160512
0.30707714515545970, 0.30851690131065890, 0.31051251497960169
0.31279624056691008, 0.31506928146209329, 0.31708026002696410
0.31866824217746603, 0.31961577762767041, 0.32024247870450978
0.32097776589994587, 0.32164637853633099, 0.32225894010336248
0.32193745508164900, 0.32321327780065673, 0.32552236227254122
0.32926682038314398, 0.33426371924241227, 0.33934627285278507
0.34311326802098346, 0.34367663207380855, 0.34169254848926855
0.33743715720791062, 0.33174410295078538, 0.32702908744017295
0.32401415875704082, 0.32441583132386625, 0.32491712700765601
0.32505229279433628, 0.32532714420963332, 0.32627388929970552
0.32870646382310681, 0.33324240973518948, 0.33982045994380239
0.34679425140715586, 0.35669634661840183, 0.36909078489693087
0.38245162938201960, 0.39561561927603162, 0.40737216019745320
0.41658984136495641, 0.42238091317179843, 0.43020168643226020
0.43835729055599509, 0.44673216331228682, 0.45539255080639979
0.46448611068080065, 0.47393185740805938, 0.48359863428882793
0.49357151849661862, 0.50363672563962225, 0.51368009797239711
0.52368166693702500, 0.53368323590165312, 0.54368480486628179
0.55368637383090991, 0.56368794279553791, 0.57368951176016603
0.58369108072479436, 0.40366295220359644, 0.38978108411823598
0.37752509636479031, 0.36689498894325934, 0.35789076185364299
0.34905809695506973, 0.34323435121111939, 0.34171451071191333
0.34495940625432497, 0.35044452067126863, 0.35609005734084953
0.36010144782234416, 0.36209536238664602, 0.36239059925352329
0.36124296994622068, 0.35924148285133672, 0.35623007808812684
0.35237538841948018, 0.34847433076224188, 0.34470575357261540
0.34118229755793511, 0.33793864782983524, 0.33478432799806546
0.33162272601740622, 0.32852344291258168, 0.32555971080161894
0.32284971121170047, 0.32050800419808984, 0.31862395069050237
0.31703481230383185, 0.31561545951653308, 0.31439871905566419
0.31339701687707577, 0.31275627596180350, 0.31248826150241504
0.31268638607389859, 0.31333216016566567, 0.31392084155963901
0.31426356982232617, 0.31443591341073551, 0.31412224327973171
0.31449959583354148, 0.31626619581612381, 0.31922831143604485
0.32254757463865624, 0.32574266491283099, 0.32823965432347141
0.32931240118213256, 0.32975397317401184, 0.33033205975491292
0.33295960686863468, 0.33675746987353106, 0.34084875481007515
0.34419996769317496, 0.34729355802827849, 0.34982775557330253
0.35093077479499113, 0.35317409582666187, 0.35512652562628000
0.35496084160488861, 0.35497273835991916, 0.35847872037322481
0.36332450654661474, 0.36767141632738548, 0.36996906095099968
0.36900275664917470, 0.36477613367865996, 0.35892335102758671
0.35591831464764434, 0.35615411256453722, 0.36055909034116085
0.36777649278701413, 0.37534549553856406, 0.38321087477102989
0.38960573910887425, 0.39571909022631724, 0.39942500552566884
0.40703451965434490, 0.42045264099781987, 0.43631285913789003
0.45186274568525348, 0.46917881071888751, 0.48707456021783402
0.50136248398702565, 0.51127533530127078, 0.52247627391140017
0.53120022730705885, 0.53660622122917734, 0.54331608161976996
0.54828666859207487, 0.54973632102495229, 0.54631537429111754
0.53832710979016529, 0.52691424881926163, 0.51441701916829963
0.50157160730842532, 0.48934045976773505, 0.47716095131101205
0.46498144285428888, 0.45280193439756561, 0.44062242594084255
0.27369164620841757, 0.25475751797251062, 0.24122747582473270
0.23310151976508359, 0.23037964979356332, 0.23984213177295974
0.24688954118390935, 0.25408627206260503, 0.26187843380440290
0.27012101687785595, 0.27797131257496815, 0.28395005148884689
0.28814583313798314, 0.29072330264831020, 0.29137353121187903
0.29095079545074237, 0.29024620284397623, 0.28901882374500737
0.28790792930213643, 0.28665363764848900, 0.28537134827225785
0.28420602776743259, 0.28352738639606223, 0.28338194298209901
0.28354467172393683, 0.28316999976209611, 0.28246945740519575
0.28153261636728472, 0.28057899172940143, 0.27974996388123069
0.27928995029890474, 0.27945786885040147, 0.27961847884764673
0.28013896779842745, 0.28105345484828209, 0.28237834951466950
0.28396372365288242, 0.28567228410138568, 0.28736662737494817
0.28921867843510879, 0.29117537954002731, 0.29295891062832646
0.29530958713762684, 0.29812132200063796, 0.30116703972671549
0.30428871154578230, 0.30707683147012282, 0.30980611470519348
0.31212432431081205, 0.31419698032409726, 0.31622378315202576
0.31869170246661760, 0.32141657999064271, 0.32389798035814471
0.32626302515801658, 0.32854179676581302, 0.33026153884844722
0.33043764988794699, 0.33016785679243316, 0.32928024785029086
0.32750794603053002, 0.32549185325874830, 0.32387665185736875
0.32317845627472008, 0.32316494283210101, 0.32391437685692925
0.32601578241881252, 0.32904958917766558, 0.33285591041466889
0.33758175880986951, 0.34250773110806787, 0.34855382236248789
0.35515745901614776, 0.36218833822570473, 0.37043221789945924
0.37813186982547592, 0.39321389404509205, 0.41287380031930676
0.43427812766527341, 0.45475549983844232, 0.47129402468422155
0.48342677023477409, 0.48808261114808249, 0.49486503993541842
0.50179409676913467, 0.51087497855031716, 0.52064395206462466
0.52924376337084267, 0.53612988426109387, 0.54295618498084197
0.55066666982731916, 0.56083551347874572, 0.57569402955110227
0.59368308862735231, 0.61201390160590008, 0.62933130830803630
0.64664871501017251, 0.66396612171230873, 0.68128352841444495
0.69860093511658128, 0.71591834181871783
weight_table_end
origin_ocv_table_start
4=col
0x751258b7=crc
3.0248285000000004, 3.3462704380108583, 3.4683848444218159
3.5488288374501717, 3.6081949951745806, 3.6533420414262090
3.6837819154141145, 3.6947128474575179, 3.6989133725522887
3.7019199689986428, 3.7046216455893073, 3.7074446630773266
3.7106886672705630, 3.7148933497184431, 3.7211862205661319
3.7291347968310533, 3.7366790834445935, 3.7436986462830197
3.7505904240609396, 3.7575310713721319, 3.7639402198141667
3.7698264548087246, 3.7756755091358052, 3.7816475529724749
3.7874333290658400, 3.7925517278997734, 3.7970892222306123
3.8013969435175761, 3.8055724790500842, 3.8096484960922905
3.8137410606065969, 3.8178297022860064, 3.8220291904450101
3.8262317490745921, 3.8305763587043038, 3.8349367787374984
3.8394878333589393, 3.8441364736983226, 3.8488796700527010
3.8538117045287961, 3.8588643050938836, 3.8641224343183675
3.8694593756649169, 3.8749993157965359, 3.8806320684422189
3.8865332232508454, 3.8925448425588893, 3.8987930910395163
3.9052037238116881, 3.9117935195127731, 3.9186457467582088
3.9257211792660147, 3.9330221095963132, 3.9406651606108132
3.9486438652477127, 3.9571352121789878, 3.9661051161848295
3.9758984854403985, 3.9867856215471953, 3.9989108323192073
4.0120820732334685, 4.0251750918238960, 4.0375432899107357
4.0489255748367592, 4.0596552047819232, 4.0699986457279635
4.0802885047379718, 4.0904832279727854, 4.1007922807524091
4.1111964270447716, 4.1216322452536351, 4.1322379528507271
4.1428919045409431, 4.1537046422223947, 4.1645551903304270
4.1754968560164150, 4.1865607382206695, 4.1976604532483517
4.2088937443695924, 4.2201799075507580, 4.2314495517146176
4.2427649319897549, 4.2541455247286173, 4.2654522357083673
4.2767514209043176, 4.2879375715621579, 4.2989893949273732
4.3099136140398366, 4.3206182560558153, 4.3311142633589235
4.3413887823700437, 4.3513205284041021, 4.3610449983889081
4.3704981346257936, 4.3796535767224567, 4.3886511628099969
4.3975175930068682, 4.4062580757777798, 4.4151612633005017
4.4245429043227285, 4.4397746666666675, 3.1771616250000001
3.4767427530468771, 3.5577244325202098, 3.6126464358162709
3.6500084191405300, 3.6748321237764818, 3.6903676400933474
3.6956162611762609, 3.6985237597866210, 3.7007043514017894
3.7029824585717090, 3.7054312448292617, 3.7085984792664286
3.7126384149292067, 3.7186737541761135, 3.7255049715782826
3.7317866635704009, 3.7376817484062848, 3.7433091683769320
3.7489306759671579, 3.7540378166003965, 3.7584810376259261
3.7626583461333993, 3.7667540771414272, 3.7710019805733550
3.7748604271394819, 3.7784648143466630, 3.7820520358835124
3.7857643272985344, 3.7891981352057726, 3.7924234887844439
3.7959222133117327, 3.7994668680817512, 3.8029444109787955
3.8066154471480793, 3.8102995291844990, 3.8140218733316829
3.8179975441222966, 3.8221198116385651, 3.8261015836042831
3.8305166511000648, 3.8351374723055032, 3.8399850677669232
3.8448610670067307, 3.8499736753741756, 3.8552412717419768
3.8608351921394743, 3.8666130007586554, 3.8724950174458432
3.8787346760206951, 3.8851614220891539, 3.8917969920349722
3.8987557766687533, 3.9059654063328417, 3.9135481540634185
3.9212627439095047, 3.9293983235930492, 3.9379206747012510
3.9468252496460221, 3.9559796494220194, 3.9657796416487203
3.9761260715555764, 3.9874725972316258, 4.0002092290804292
4.0150285125793932, 4.0313034675121244, 4.0466499855323619
4.0607654548432244, 4.0740629523999097, 4.0869290939011620
4.0995088340463592, 4.1119536552218605, 4.1240855656311917
4.1364370153817127, 4.1487773355748541, 4.1612239914820304
4.1738919261470269, 4.1865085067880212, 4.1993928228961259
4.2122409474590725, 4.2252676511873641, 4.2381734341039525
4.2512881066161601, 4.2641992478256387, 4.2772099813146660
4.2899354169015478, 4.3025618075791687, 4.3150243258776975
4.3269891551012662, 4.3388184819583824, 4.3501900094530574
4.3610670775536828, 4.3713972708757183, 4.3815161697366651
4.3912461340747875, 4.4005718954964550, 4.4095729997171933
4.4180731650719851, 4.4262278402555761, 4.4340976305146071
4.4453637500000003, 3.1024500249999996, 3.4123343743506727
3.5110345498620084, 3.5752689636577917, 3.6214247440874159
3.6549764334352188, 3.6768348248120466, 3.6886488609787342
3.6929522347670907, 3.6954086364216412, 3.6977217094094286
3.6999658149372912, 3.7026221752683597, 3.7061618560375340
3.7114714791623404, 3.7178252685571103, 3.7244236654278975
3.7304972759731654, 3.7363309758403047, 3.7421457407678149
3.7474767296635010, 3.7523472678280405, 3.7566732662260147
3.7608819182487636, 3.7650616981470519, 3.7692769023874275
3.7733654485358330, 3.7774143784417586, 3.7813765158362038
3.7854361828855909, 3.7894950297795562, 3.7936671616476012
3.7980184705504811, 3.8022594678563721, 3.8064515672186685
3.8104672809098723, 3.8144753647013561, 3.8186056913844348
3.8228590808142533, 3.8271944449911306, 3.8317061471024854
3.8364092910442671, 3.8412439896988326, 3.8463439623580573
3.8515560688755484, 3.8570185439069467, 3.8628077453195448
3.8687181208204247, 3.8748874528303605, 3.8812865021691123
3.8879236099120655, 3.8948746481945138, 3.9021424784999139
3.9096532697364976, 3.9174539178791932, 3.9255188807606562
3.9339688750864403, 3.9427995357532271, 3.9519589353826565
3.9616588488076228, 3.9718674820753024, 3.9828285930191427
3.9949839127633808, 4.0085325297209913, 4.0237163874259387
4.0392760927279658, 4.0543207891962467, 4.0681791727338243
4.0811023014650107, 4.0936020710103307, 4.1060267627325491
4.1183230654999718, 4.1307165471961023, 4.1431502653717232
4.1556433615462867, 4.1682100264839619, 4.1809964155654260
4.1937173576770359, 4.2065831757423133, 4.2195808312903260
4.2325264166607770, 4.2454968634496577, 4.2584874558332064
4.2713693441284830, 4.2842358765214987, 4.2968678960509950
4.3092287675587828, 4.3213512088344856, 4.3330805740250700
4.3444854983935919, 4.3555239851210414, 4.3660480622571871
4.3762198658684621, 4.3859612892405719, 4.3953644548101956
4.4043955670040171, 4.4129273451517621, 4.4210705022275576
4.4286443425052830, 4.4361519487144569, 4.4454677499999997
3.0177226666666663, 3.3258137544868496, 3.4493549587270826
3.5308621555935944, 3.5912667626377561, 3.6380770274832961
3.6720726405305277, 3.6841379559203173, 3.6878676392436365
3.6901421791924065, 3.6925990198239256, 3.6950101035641345
3.6981447023191065, 3.7025535375229768, 3.7102033730086235
3.7190548351978312, 3.7270462998329150, 3.7348342143755695
3.7428155709165352, 3.7501589450736330, 3.7569712238126449
3.7636018504631088, 3.7699513106260052, 3.7759597000506298
3.7816247874455571, 3.7873543392649984, 3.7932225744911734
3.7991488984936144, 3.8049914685144395, 3.8109533517073508
3.8168760605353982, 3.8226077789881820, 3.8280070885088828
3.8332523201868285, 3.8383591889480737, 3.8434366917388214
3.8485742100516425, 3.8537935155109033, 3.8591631744647881
3.8646501396715203, 3.8703557265945912, 3.8761980618235174
3.8822529962424830, 3.8884541383740725, 3.8948489478682675
3.9014926867218285, 3.9083242993154825, 3.9154335844770718
3.9226530352127171, 3.9302647509293736, 3.9381005839691241
3.9463140706984432, 3.9549272927922430, 3.9641865490733252
3.9742274783746860, 3.9848222679374863, 3.9954743566254316
4.0069464121378040, 4.0196855243608942, 4.0329775731667423
4.0457810631694997, 4.0578215722565121, 4.0692694438862764
4.0803182690244606, 4.0911036141818151, 4.1018478457704877
4.1125647806864229, 4.1233271007333281, 4.1341053346859029
4.1450052307440890, 4.1559723890565978, 4.1670093996731197
4.1781058236494850, 4.1892890000389125, 4.2005107164501725
4.2117556639979270, 4.2230115488799296, 4.2342324868162988
4.2454505208342610, 4.2566550398244738, 4.2676631693833933
4.2786626688907985, 4.2894538993525870, 4.3000144560700164
4.3104891427918783, 4.3206594352275580, 4.3305973103353734
4.3402519269625088, 4.3496214721780975, 4.3587243271351506
4.3675593276887001, 4.3761084987439292, 4.3843409035966943
4.3922937700705420, 4.4000060258973361, 4.4073554795014749
4.4145051466985388, 4.4215616983785289, 4.4286765846800078
4.4359865251406276, 4.4455525000000007
origin_ocv_table_end
temp_break_points_table_start
4=col
0x57b4fd9b=crc
10.0, 20.0, 30.0, 40.0
temp_break_points_table_end
max_limit_list_table_start
12=col
0xf0fea615=crc
5.0, 50.0, 5.0, 1.0, 0.0, 0.0, 0.0, 0.0, 20.0, 7.514, 6.514, 7.514
max_limit_list_table_end
min_limit_list_table_start
12=col
0x9dbcaaeb=crc
2.5, 10.0, 0.5, 0.0, 0.0, 0.0, 0.0, 0.0, -20.0, 0.5, 0.0, 1.0
min_limit_list_table_end
initial_charge_current_table_start
6=col
0x0=crc
0.0, 0.0, 0.0, 0.0, 0.0, 0.0
initial_charge_current_table_end
max_voltage_table_start
4=col
0x2500fcc4=crc
4.35, 4.45, 4.53, 4.53
max_voltage_table_end
controller_parameters_table_start
4=col
0x91490129=crc
3.0, 3.0, 3.0, 3.0
controller_parameters_table_end
soc_bp_3_table_start
4=col
0x2b0850b4=crc
0.0, 0.33333333333333331, 0.8, 1.0
soc_bp_3_table_end
