0.680000000000000
0.320000000000000
0.265000000000000
0.690000000000000
0.150000000000000
0.060000000000000
0.312700000000000
0.329000000000000
0.4545454545454545
0
10
0
0
0
0
0
1
0
0
1
1
0
0
0
1
0
0
0
1
0
0
0
0
0
0
0
0
0
0
0
0
0
0
0
0
0
0
0
0.100000000000000
0.100000000000000
0.050000000000000
0
0.100000000000000
0.100000000000000
0.050000000000000
0
0
0
0
0
1
0
0
0
0.500000000000000
0.500000000000000
0.500000000000000
0.500000000000000
3
0
0
0
0.87663084
0.21778052
-0.09441136
0
0.02058558
0.80270812
0.01618998
0
-0.00670111
-0.04769481
0.28536144
0
1
0
0
0
0
1
0
0
0
0
1
0
0.73821893
-0.0393215
0.04002821
0
-0.00394282
0.75161839
-0.00793695
0
0.00231986
0.02034213
0.97733802
0
0
0
0
0
2.40000000000000
0
0
0
1.0000
420
151
1000
0.125
1.5
0.33333
1
0
0
1
1
0
1
0
0
0
0
0
0
0
0
0
0
0
0
0
0
0
0
0
0
0
0
0
0
0
0
0
0
0
0
0
0
0
0
0
0
0
0
0
0
0
0
0
0
0
0
0
0
0
0
0
0
0
0
0
0
0
0
0
0
0
0
0
0
0
0
0
0
0.11
2.6
0
0.58
0
0
0.640000000000000
0.330000000000000
0.300000000000000
0.600000000000000
0.150000000000000
0.060000000000000
0.312713000000000
0.329060000000000
0.4545454545
0
3
3
2.5
2.5
10
5
0.1
1.15
0.23
1.55
0
0.9
0.1
0.1
90
265
0.35
0.143
-30
14
2
2
-0.5
1.5
0
1
0
0
0
0
0
0
0
0
0
0
0
0
0
0
0
0
0
0
0
0
0
0
0
0
0
0
0
0
0
0
0
0
0
0
0
0
0
0
0
0
0
0
0
0
0
0
0
0
0
0
0
0
0
0
0
0
0
0
0
0
0
0
0
0
0
0
0
0
0
0
0
0
0
0
0
0
0
0
0
0
0
0
0
0
0
0
0
0
0
0
0
0
0
0
0
0
0
0
0
0
0
0
0
0
0
0
0
0
0
0
0
0
0
0
0
0
0
0
0
0
0
0
0
0
0
0
0
0
0
0
0
0
0
0
0
0
0
0
0
0
0
0
0
0
0
0
0
0
0
0
0
0
0
0
0
0
0
0
0
0
0
0
0
125
10000
1
1
1
0
0
2
0
2
81
105
131
201
261
325
26
0.8
0.1
0.5
0.6
0.5
0.6
1
0
12
123
0
0.8
0.1
0.5
0.6
0.5
0.6
1
0
12
123
0
0.8
0.1
0.5
0.6
0.5
0.6
1
0
12
123
0
0.8
0.1
0.5
0.6
0.5
0.6
1
0
12
123
0
0.8
0.1
0.5
0.6
0.5
0.6
1
0
12
123
0
0.8
0.1
0.5
0.6
0.5
0.6
1
0
12
123
0
0.8
0.1
0.5
0.6
0.5
0.6
1
0
12
123
0
0.5
0
50
50
50
50
120
0.05
10
0
50
60
50
60
120
0.05
10
0
50
50
50
50
120
0.05
10
0
50
50
50
50
120
0.05
10
0
50
50
50
50
120
0.05
10
0
50
50
50
50
120
0.05
10
0
50
50
50
50
120
0.05
10
0.5
0
0
12
123
0
-5
0
12
123
0
0
0
12
123
0
0
0
12
123
0
0
0
12
123
0
0
0
12
123
0
0
0
12
123
0
0.3
-10
0.7
0.12
0.96
120
30
40
1
0.7
0.12
0.96
330
3
20